Longitudinal Models for MLB Careers – Ben Stockton’s Stats Site
…
Code

library(ggplot2)

dat <- lapply(2015:2023, function(yr) {statcast_leaderboards(leaderboard = "expected_statistics", year = yr, min_pa = 25)}) |>
    bind_rows()

dat

── MLB Baseball Savant Statcast Leaderboards data from baseballsavant.mlb.com ──

ℹ Data updated: 2024-03-13 14:54:33 EDT

# A tibble: 7,849 × 14
    year `last_name, first_name` player_id    pa   bip    ba est_ba
   <int> <chr>                       <int> <int> <int> <dbl>  <dbl>
 1  2015 Machado, Manny             592518   713   528 0.286  0.267
 2  2015 Donaldson, Josh            518626   711   499 0.297  0.279
 3  2015 Dozier, Brian              572821   704   488 0.236  0.22 
 4  2015 Rizzo, Anthony             519203   701   488 0.278  0.275
 5  2015 Votto, Joey                458015   695   412 0.314  0.289
 6  2015 Goldschmidt, Paul          502671   694   423 0.321  0.279
 7  2015 Fielder, Prince            425902   693   530 0.305  0.277
 8  2015 Fowler, Dexter             451594   690   447 0.25   0.231
 9  2015 Eaton, Adam                594809   689   486 0.287  0.251
10  2015 Altuve, Jose               514888   689   580 0.313  0.262
# ℹ 7,839 more rows
# ℹ 7 more variables: est_ba_minus_ba_diff <dbl>, slg <dbl>, est_slg <dbl>,
#   est_slg_minus_slg_diff <dbl>, woba <dbl>, est_woba <dbl>,
#   est_woba_minus_woba_diff <dbl>
…
